…
``` r
mpg
```

    ## # A tibble: 234 x 11
    ##    manufacturer model    displ  year   cyl trans   drv     cty   hwy fl   
    ##    <chr>        <chr>    <dbl> <int> <int> <chr>   <chr> <int> <int> <chr>
    ##  1 audi         a4        1.80  1999     4 auto(l… f        18    29 p    
    ##  2 audi         a4        1.80  1999     4 manual… f        21    29 p    
    ##  3 audi         a4        2.00  2008     4 manual… f        20    31 p    
    ##  4 audi         a4        2.00  2008     4 auto(a… f        21    30 p    
    ##  5 audi         a4        2.80  1999     6 auto(l… f        16    26 p    
    ##  6 audi         a4        2.80  1999     6 manual… f        18    26 p    
    ##  7 audi         a4        3.10  2008     6 auto(a… f        18    27 p    
    ##  8 audi         a4 quat…  1.80  1999     4 manual… 4        18    26 p    
    ##  9 audi         a4 quat…  1.80  1999     4 auto(l… 4        16    25 p    
    ## 10 audi         a4 quat…  2.00  2008     4 manual… 4        20    28 p    
    ## # ... with 224 more rows, and 1 more variable: class <chr>
…
``` r
purrr::modify_if(mpg, is_character, str_to_upper) %>% as_tibble
```

    ## # A tibble: 234 x 11
    ##    manufacturer model    displ  year   cyl trans   drv     cty   hwy fl   
    ##    <chr>        <chr>    <dbl> <int> <int> <chr>   <chr> <int> <int> <chr>
    ##  1 AUDI         A4        1.80  1999     4 AUTO(L… F        18    29 P    
    ##  2 AUDI         A4        1.80  1999     4 MANUAL… F        21    29 P    
    ##  3 AUDI         A4        2.00  2008     4 MANUAL… F        20    31 P    
    ##  4 AUDI         A4        2.00  2008     4 AUTO(A… F        21    30 P    
    ##  5 AUDI         A4        2.80  1999     6 AUTO(L… F        16    26 P    
    ##  6 AUDI         A4        2.80  1999     6 MANUAL… F        18    26 P    
    ##  7 AUDI         A4        3.10  2008     6 AUTO(A… F        18    27 P    
    ##  8 AUDI         A4 QUAT…  1.80  1999     4 MANUAL… 4        18    26 P    
    ##  9 AUDI         A4 QUAT…  1.80  1999     4 AUTO(L… 4        16    25 P    
    ## 10 AUDI         A4 QUAT…  2.00  2008     4 MANUAL… 4        20    28 P    
    ## # ... with 224 more rows, and 1 more variable: class <chr>
``` r
keep(mpg, is_bare_numeric) %>% map_df(mean)
```

    ## # A tibble: 1 x 5
    ##   displ  year   cyl   cty   hwy
    ##   <dbl> <dbl> <dbl> <dbl> <dbl>
    ## 1  3.47  2004  5.89  16.9  23.4

``` r
mpg %>% 
  mutate_if(is_bare_numeric, ~round(.) %>% as.integer())
```

    ## # A tibble: 234 x 11
    ##    manufacturer model    displ  year   cyl trans   drv     cty   hwy fl   
    ##    <chr>        <chr>    <int> <int> <int> <chr>   <chr> <int> <int> <chr>
    ##  1 audi         a4           2  1999     4 auto(l… f        18    29 p    
    ##  2 audi         a4           2  1999     4 manual… f        21    29 p    
    ##  3 audi         a4           2  2008     4 manual… f        20    31 p    
    ##  4 audi         a4           2  2008     4 auto(a… f        21    30 p    
    ##  5 audi         a4           3  1999     6 auto(l… f        16    26 p    
    ##  6 audi         a4           3  1999     6 manual… f        18    26 p    
    ##  7 audi         a4           3  2008     6 auto(a… f        18    27 p    
    ##  8 audi         a4 quat…     2  1999     4 manual… 4        18    26 p    
    ##  9 audi         a4 quat…     2  1999     4 auto(l… 4        16    25 p    
    ## 10 audi         a4 quat…     2  2008     4 manual… 4        20    28 p    
    ## # ... with 224 more rows, and 1 more variable: class <chr>
